<?xml version="1.0" encoding="iso-8859-1"?>
<!-- Generator: Adobe Illustrator 19.0.0, SVG Export Plug-In . SVG Version: 6.00 Build 0)  -->
<svg version="1.1" id="Capa_1" xmlns="http://www.w3.org/2000/svg" xmlns:xlink="http://www.w3.org/1999/xlink" x="0px" y="0px"
	 viewBox="0 0 496 496" style="enable-background:new 0 0 496 496;" xml:space="preserve">
<g>
	<g>
		<g>
			<path d="M354.136,340.056C352.2,328.44,342.248,320,330.464,320h-18.448v-8c0-13.232-10.768-24-24-24h-5.592l29.32-109.936
				l0.16-10.608c19.656-17.592,32.112-43.064,32.112-71.456c0-52.936-43.064-96-96-96c-52.936,0-96,43.064-96,96
				c0,28.336,12.416,53.768,32,71.352V176l29.616,112h-5.616c-13.232,0-24,10.768-24,24v8h-18.448
				c-11.792,0-21.744,8.44-23.672,20.056L120.44,468.88l-0.424,5.368c0,11.992,9.76,21.752,21.752,21.752h212.496
				c11.992,0,21.752-9.76,21.72-22.424L354.136,340.056z M252.936,16.248c40.176,2.464,72.368,34.648,74.832,74.832
				c-9.448-2.952-24.36-5.224-34.496,4.92c-6.352,6.352-10.928,13.976-15.352,21.344c-4.104,6.832-7.976,13.296-12.936,18.256
				c-7.88,7.888-30.912,14.328-50.912-5.656c-19.984-19.992-13.544-43.024-5.656-50.912c4.96-4.96,11.424-8.832,18.256-12.936
				c7.368-4.424,14.992-9,21.344-15.352C258.16,40.6,255.888,25.696,252.936,16.248z M168.016,96
				c0-40.08,29.664-73.28,68.168-79.024c2.248,5.576,5.672,17.304,0.52,22.456c-4.96,4.96-11.424,8.832-18.264,12.944
				c-7.368,4.424-14.984,8.992-21.336,15.344c-14.224,14.224-20.176,47.696,5.656,73.536c12.872,12.864,27.64,17.848,40.976,17.848
				c13.44,0,25.424-5.056,32.56-12.192c6.352-6.352,10.92-13.968,15.344-21.336c4.112-6.84,7.984-13.304,12.944-18.264
				c5.088-5.088,16.552-1.888,22.456,0.512C321.296,146.328,288.096,176,248.016,176C203.904,176,168.016,140.112,168.016,96z
				 M201.304,179.8c13.84,7.744,29.76,12.2,46.712,12.2c16.952,0,32.872-4.456,46.712-12.2L265.872,288H230.16L201.304,179.8z
				 M354.264,480H141.768c-3.168,0-5.752-2.576-5.784-5.08l21.696-132.24c0.64-3.864,3.96-6.68,7.888-6.68h98.448v-16h-64v-8
				c0-4.416,3.584-8,8-8h80c4.416,0,8,3.584,8,8v8h-16v16h50.448c3.928,0,7.248,2.816,7.888,6.68l21.304,127.56l0.36,4.008
				C360.016,477.424,357.44,480,354.264,480z"/>
			<path d="M176.016,464h144V352h-144V464z M192.016,368h112v80h-112V368z"/>
			<rect x="208.016" y="384" width="80" height="16"/>
			<rect x="208.016" y="416" width="80" height="16"/>
		</g>
	</g>
</g>
<g>
</g>
<g>
</g>
<g>
</g>
<g>
</g>
<g>
</g>
<g>
</g>
<g>
</g>
<g>
</g>
<g>
</g>
<g>
</g>
<g>
</g>
<g>
</g>
<g>
</g>
<g>
</g>
<g>
</g>
</svg>
